UID,TEXT_TRANS,TEXT_NOTRANS,VOICE_TRANS,VOICE_NOTRANS,CORRECT_SEND,CORRECT_RECV,TOTAL_FAV,TOTAL_TRANS,TOTAL_NOT_TRANS,TOTAL_CORRECT
3427475,4266,25744,1,465,8986,461,39923,4267,26209,9447
1371734,1,0,1,0,11175,6249,17426,2,0,17424
3576871,39,5377,0,495,341,8357,14609,39,5872,8698
157232,1411,9722,0,469,29,13,11644,1411,10191,42
1725691,1,2,1,3,10867,160,11034,2,5,11027
1587367,4,867,0,22,4484,5431,10808,4,889,9915
1767804,655,9392,12,8,159,104,10330,667,9400,263
2858409,2,6,1,0,3205,7058,10272,3,6,10263
2657366,1013,6143,17,236,1866,524,9799,1030,6379,2390
2299073,7778,283,11,0,1234,482,9788,7789,283,1716
